parameter, value
architecture, ENet
aug_ema_range, 10
aug_start_epoch, 0
aug_strength, 1.0
auto_train_stop, False
backbone, None
batch_size, 80
channels, 3
classes, 2
dataset_name, stream_shoreline
depth_3d, 16
device, cuda
drop_last, False
epochs, 150
gpu, 0
input_size, 512
lr, 0.001
norm, bn
norm_on_dataset, True
online_aug, False
pretrained, True
reproduce, False
rnn_sequence_size, 12
save_every, 5
show_ram, False
use_gru, True
